{
    "moduleFileExtensions": ["js", "json", "ts"],
    "rootDir": ".",
    "testEnvironment": "node",
    "testRegex": ".spec.ts$",
    "transform": {
        "^.+\\.(t|j)s$": "ts-jest"
    },
    "moduleNameMapper": {
        "^@/(.*)$": "<rootDir>/src/$1"
    }
}